Q2/encoder/encoder.vcd
$date
	Fri Oct 13 10:50:51 2017
$end
$version
	Icarus Verilog
$end
$timescale
	100ps
$end
$scope module t_encoder $end
$var wire 4 ! out [0:3] $end
$var reg 16 " in [0:15] $end
$scope module inst $end
$var wire 16 # in [0:15] $end
$var reg 4 $ out [0:3] $end
$upscope $end
$upscope $end
$enddefinitions $end
#0
$dumpvars
b0 $
b1 #
b1 "
b0 !
$end
#100
b1 $
b1 !
b10 "
b10 #
#200
b10 $
b10 !
b100 "
b100 #
#300
bx $
bx !
b101 "
b101 #
#400
b11 $
b11 !
b1000 "
b1000 #
#500
b100 $
b100 !
b10000 "
b10000 #
#600
b101 $
b101 !
b100000 "
b100000 #
#700
b110 $
b110 !
b1000000 "
b1000000 #
#800
b111 $
b111 !
b10000000 "
b10000000 #
#900
bx $
bx !
b11000000 "
b11000000 #
#1000
b1000 $
b1000 !
b100000000 "
b100000000 #
#1100
b1001 $
b1001 !
b1000000000 "
b1000000000 #
#1200
b1010 $
b1010 !
b10000000000 "
b10000000000 #
#1300
b1011 $
b1011 !
b100000000000 "
b100000000000 #
#1400
b1100 $
b1100 !
b1000000000000 "
b1000000000000 #
#1500
b1101 $
b1101 !
b10000000000000 "
b10000000000000 #
#1600
b1110 $
b1110 !
b100000000000000 "
b100000000000000 #
#1700
b1111 $
b1111 !
b1000000000000000 "
b1000000000000000 #
